{
  "version": "1.0.0",
  "licensezero": [
    {
      "agentSignature": "5c4a4577b74c982d6caed97ed08f55a7ec95a400ea6afbdaa27f9f8789ff4c12e999e9947acdb914b5c0157ed46dc2a56ccd2e4353d3636f6bf73d2aee68cc06",
      "license": {
        "homepage": "https://www.npmjs.com/package/@scion-scxml/schviz",
        "jurisdiction": "US-DE",
        "name": "Jacobean Research and Development",
        "projectID": "275619c6-1d2d-4e70-b50b-d2bd77acfe4d",
        "publicKey": "5c9441fef36e5952d1906de3951b423a2e258c71cc9f5aea154a0319f5d73a10",
        "terms": "parity",
        "version": "3.0.0"
      },
      "licensorSignature": "04ee92770546c4e641b6285d438edb9e44c3136580a803ab82c73e0df428d8b2f9566fe94a3f90e82e33136cda32782f1a9e8314c34044e950741b0879db250e"
    }
  ]
}
